FPGA_VGA_HARDWARE/simulation/qsim/vgaram.msim.vcd
$comment
	File created using the following command:
		vcd file vgaram.msim.vcd -direction
$end
$date
	Wed Dec 23 12:17:05 2015
$end
$version
	ModelSim Version 10.3d
$end
$timescale
	1ps
$end

$scope module vgaram_vlg_vec_tst $end
$var reg 1 ! clk50_in $end
$var wire 1 " blue_out [2] $end
$var wire 1 # blue_out [1] $end
$var wire 1 $ blue_out [0] $end
$var wire 1 % clk25 $end
$var wire 1 & green_out [1] $end
$var wire 1 ' green_out [0] $end
$var wire 1 ( hs_out $end
$var wire 1 ) red_out [2] $end
$var wire 1 * red_out [1] $end
$var wire 1 + red_out [0] $end
$var wire 1 , vs_out $end
$var wire 1 - sampler $end

$scope module i1 $end
$var wire 1 . gnd $end
$var wire 1 / vcc $end
$var wire 1 0 unknown $end
$var tri1 1 1 devclrn $end
$var tri1 1 2 devpor $end
$var tri1 1 3 devoe $end
$var wire 1 4 ~QUARTUS_CREATED_GND~I_combout $end
$var wire 1 5 clk50_in~input_o $end
$var wire 1 6 clk25~reg0_q $end
$var wire 1 7 clk25~0_combout $end
$var wire 1 8 clk25~reg0feeder_combout $end
$var wire 1 9 clk25~reg0DUPLICATE_q $end
$upscope $end
$upscope $end
$enddefinitions $end
#0
$dumpvars
0!
0$
0#
0"
0%
0'
0&
0(
0+
0*
0)
0,
x-
0.
1/
x0
11
12
13
04
05
06
17
18
09
$end
#10000
1!
0-
15
16
19
07
1%
08
#20000
0!
1-
05
#30000
1!
0-
15
06
09
17
0%
18
#40000
0!
1-
05
#50000
1!
0-
15
16
19
07
1%
08
#60000
0!
1-
05
#70000
1!
0-
15
06
09
17
0%
18
#80000
0!
1-
05
#90000
1!
0-
15
16
19
07
1%
08
#100000
0!
1-
05
#110000
1!
0-
15
06
09
17
0%
18
#120000
0!
1-
05
#130000
1!
0-
15
16
19
07
1%
08
#140000
0!
1-
05
#150000
1!
0-
15
06
09
17
0%
18
#160000
0!
1-
05
#170000
1!
0-
15
16
19
07
1%
08
#180000
0!
1-
05
#190000
1!
0-
15
06
09
17
0%
18
#200000
0!
1-
05
#210000
1!
0-
15
16
19
07
1%
08
#220000
0!
1-
05
#230000
1!
0-
15
06
09
17
0%
18
#240000
0!
1-
05
#250000
1!
0-
15
16
19
07
1%
08
#260000
0!
1-
05
#270000
1!
0-
15
06
09
17
0%
18
#280000
0!
1-
05
#290000
1!
0-
15
16
19
07
1%
08
#300000
0!
1-
05
#310000
1!
0-
15
06
09
17
0%
18
#320000
0!
1-
05
#330000
1!
0-
15
16
19
07
1%
08
#340000
0!
1-
05
#350000
1!
0-
15
06
09
17
0%
18
#360000
0!
1-
05
#370000
1!
0-
15
16
19
07
1%
08
#380000
0!
1-
05
#390000
1!
0-
15
06
09
17
0%
18
#400000
0!
1-
05
#410000
1!
0-
15
16
19
07
1%
08
#420000
0!
1-
05
#430000
1!
0-
15
06
09
17
0%
18
#440000
0!
1-
05
#450000
1!
0-
15
16
19
07
1%
08
#460000
0!
1-
05
#470000
1!
0-
15
06
09
17
0%
18
#480000
0!
1-
05
#490000
1!
0-
15
16
19
07
1%
08
#500000
0!
1-
05
#510000
1!
0-
15
06
09
17
0%
18
#520000
0!
1-
05
#530000
1!
0-
15
16
19
07
1%
08
#540000
0!
1-
05
#550000
1!
0-
15
06
09
17
0%
18
#560000
0!
1-
05
#570000
1!
0-
15
16
19
07
1%
08
#580000
0!
1-
05
#590000
1!
0-
15
06
09
17
0%
18
#600000
0!
1-
05
#610000
1!
0-
15
16
19
07
1%
08
#620000
0!
1-
05
#630000
1!
0-
15
06
09
17
0%
18
#640000
0!
1-
05
#650000
1!
0-
15
16
19
07
1%
08
#660000
0!
1-
05
#670000
1!
0-
15
06
09
17
0%
18
#680000
0!
1-
05
#690000
1!
0-
15
16
19
07
1%
08
#700000
0!
1-
05
#710000
1!
0-
15
06
09
17
0%
18
#720000
0!
1-
05
#730000
1!
0-
15
16
19
07
1%
08
#740000
0!
1-
05
#750000
1!
0-
15
06
09
17
0%
18
#760000
0!
1-
05
#770000
1!
0-
15
16
19
07
1%
08
#780000
0!
1-
05
#790000
1!
0-
15
06
09
17
0%
18
#800000
0!
1-
05
#810000
1!
0-
15
16
19
07
1%
08
#820000
0!
1-
05
#830000
1!
0-
15
06
09
17
0%
18
#840000
0!
1-
05
#850000
1!
0-
15
16
19
07
1%
08
#860000
0!
1-
05
#870000
1!
0-
15
06
09
17
0%
18
#880000
0!
1-
05
#890000
1!
0-
15
16
19
07
1%
08
#900000
0!
1-
05
#910000
1!
0-
15
06
09
17
0%
18
#920000
0!
1-
05
#930000
1!
0-
15
16
19
07
1%
08
#940000
0!
1-
05
#950000
1!
0-
15
06
09
17
0%
18
#960000
0!
1-
05
#970000
1!
0-
15
16
19
07
1%
08
#980000
0!
1-
05
#990000
1!
0-
15
06
09
17
0%
18
